{
    "type": "service_account",
    "project_id": "api-project-855783498485",
    "private_key_id": "8e97fd503dde72343125835263b8572ef4c0c9e1",
    "private_key": "-----BEGIN PRIVATE KEY-----\nMIIEvAIBADANBgkqhkiG9w0BAQEFAASCBKYwggSiAgEAAoIBAQC9DSfeBFPhsdca\nnveVdFwHa0vEgGvJwSnlDBuY5w1XLkXNkBXhERyWWMPmq/ifoGvjFYSEd+wQ22Vl\nysCis8rPNzdhWesQ3aY6Jf6tT6VAB9oSQ9XTHHGyQiAksDWBWaLyKjC41BYSb6Yk\nKZbvBUVXjlyP6T2AdQ6xO1KzzF/N9SvI3G3Fa1Ho+11yNnukpS298IN9LBcjIATz\nHmqhwZp90Q+3OE6cR7LulVNkmIGL4OLOZs3gDy8R4h9cazFMceEVXDnQ4y3n5oHX\nas/fOZFB+W0vhzYzpRBoNyvDKQRqaGzJztzKGGzt34fE6pydA//ycAac8IDCI+NW\nYNA7kTUJAgMBAAECggEAfF/nVp0qQlWp2o2y/NRsp0TjuAd04mr+kP4COfnoQO7k\nZXThsAx97ju/xkZlbz8vO1qwsCXlXMG6V9moGmKGjwUYnid2CsaH0cGlZ4f6g8Gm\nqlWOmzEfa9MtKnXy/YJnPUKcgzykuMRTXX8vGVkyYYP7SYJ9P8HDRL5ujnNqpCgB\n463LuyNZONHiBvV7cqITGsCt7f4RrVri5m9vNcGLDS42zjxgbxzvgFtvkrMJ/B09\nlwk4rhFfJsn2sFrVj+CmpXVkrC2Q8sEODqUyNECoz3DEDbm+BLodTXJkx9vrCF6s\nv1EQSutAZ1oc2XOGd5ircGlPM7yfoG9ieXlU9vSlsQKBgQDrRjg7DUbsTuzkbP8T\n9TypXwiJGFGAC+iyBJ9d4wpaSmMNeFHAhfYEscQKeEGBSZ56jsep/WTDUu1QVNmT\nGyeaZn6OXMQ/LHGEC6L5BAVf2VWw1NopGCtLac/fGG5In/LZzNl35H1PC5JmLso/\nxv4vqzBPoFrCSviWVjCgkgN/cwKBgQDNtIqxumdkppoOwiZQh0MNncwRZEisQVhV\ns9gN+RCX0mFTkAj5/GZZ6vU+GrU2dgnrfR39cEYqVnlTBIURDfwTlaSuXZGjRueI\nQnaV/Jpb01CRES7ksbFhMwj5uAyI5KUvoWpvlZ54MHiRi8TtEwR9RBwFYPoLJci+\nyAVZxOdikwKBgEyZQwtuyi17kMLZ/b4otMRL7YJ9CWPP/MWgnaY6mg9FcrRa/Pra\nYnuqyLHD70fBiThLrhPZLOou4Jar2V58k8tAHWoKJ9aNiLO9+iRqu7k2ECEPW6vP\nc6EM5SG0WYuJj857VD4lhOqsUNC14SEcj3tDl+oEwifJst93VkOg5kSjAoGAN4i/\nTN4THcQwoT1fFKx/uMRaHHPjfsWhcHm+IX+VMDe22NVw5vRyOWJKVTrmo05YvT+p\nAgv2lWWFGZmFxyXsYOksbXqLX/Y7ebjfxPxOO+4fuRpXe5xRU/lwOeKrV6XKxsIg\nNwHAp5gGZNzEDHDu7Faf7f/RYYMQ4BimASc8hIsCgYAzhV1dschaVA8QRsHrUlRL\nmBybEtf7QB7Gpq23AYg0wk99SlsvS2tu4eAa54/Hd/HUL3zlCAtaIz8SUqS8goMR\njvXjIwcUqW5cqzbltRc94PRKXvm/zws5JlN/uNH/i3IMNRmRNYV0mKidUJrxy7C/\nCmYsf2iU8KUolGm/NRUofg==\n-----END PRIVATE KEY-----\n",
    "client_email": "banshee@api-project-855783498485.iam.gserviceaccount.com",
    "client_id": "103978254519529986381",
    "auth_uri": "https://accounts.google.com/o/oauth2/auth",
    "token_uri": "https://accounts.google.com/o/oauth2/token",
    "auth_provider_x509_cert_url": "https://www.googleapis.com/oauth2/v1/certs",
    "client_x509_cert_url": "https://www.googleapis.com/robot/v1/metadata/x509/banshee%40api-project-855783498485.iam.gserviceaccount.com"
}
