{
  "project_info": {
    "project_number": "724732567423",
    "firebase_url": "https://ionic-9888c.firebaseio.com",
    "project_id": "ionic-9888c",
    "storage_bucket": "ionic-9888c.appspot.com"
  },
  "client": [
    {
      "client_info": {
        "mobilesdk_app_id": "1:724732567423:android:c106837a4a5a4339",
        "android_client_info": {
          "package_name": "br.com.izie.paqueta"
        }
      },
      "oauth_client": [
        {
          "client_id": "724732567423-tepa3edg5silqlv6rljd96hat3mte0mk.apps.googleusercontent.com",
          "client_type": 3
        }
      ],
      "api_key": [
        {
          "current_key": "AIzaSyCpR73MyX6fT5LnAA6QklEUiTVAPUmEc48"
        }
      ],
      "services": {
        "analytics_service": {
          "status": 1
        },
        "appinvite_service": {
          "status": 1,
          "other_platform_oauth_client": []
        },
        "ads_service": {
          "status": 2
        }
      }
    }
  ],
  "configuration_version": "1"
}